acl 2.3.1
adobe-source-code-pro-fonts 2.038ro+1.058it+1.018var
adwaita-icon-theme 41.0
alacritty 0.9.0
alsa-lib 1.2.6.1
alsa-topology-conf 1.2.5.1
alsa-ucm-conf 1.2.6.3
aom 3.2.0
archlinux-keyring 20211028
argon2 20190702
at-spi2-atk 2.38.0
at-spi2-core 2.42.0
atk 2.36.0
atkmm 2.28.2
attr 2.5.1
audit 3.0.6
autoconf 2.71
automake 1.16.5
avahi 0.8+22+gfd482a7
babl 0.1.88
base 2
bash 5.1.012
beautyline 20211102
binutils 2.36.1
bison 3.8.2
blas 3.10.0
boost-libs 1.78.0
brave-bin 1:1.33.106
bridge-utils 1.7.1
brotli 1.0.9
bzip2 1.0.8
ca-certificates 20210603
ca-certificates-mozilla 3.73.1
ca-certificates-utils 20210603
cairo 1.17.4
cairomm 1.14.3
cantarell-fonts 1:0.303.1
cblas 3.10.0
cdparanoia 10.2
celt 0.11.3
code-server 3.12.0
colord 1.4.5
confuse 3.3
containerd 1.5.8
coreutils 9.0
cryptsetup 2.4.2
curl 7.80.0
dav1d 0.9.2
db 5.3.28
dbus 1.12.20
dbus-glib 0.112
dbus-python 1.2.18
dconf 0.40.0
desktop-file-utils 0.26
device-mapper 2.03.14
dhclient 4.4.2.P1
diffutils 3.8
dmenu 5.0
dnssec-anchors 20190629
docker 1:20.10.12
double-conversion 3.1.6
dropbox 136.4.4345
e2fsprogs 1.46.4
elfutils 0.186
entr 5.0
exiv2 0.27.5
exo 4.16.3
expat 2.4.1
fakeroot 1.26
fcitx 4.2.9.8
fcitx-configtool 0.4.10
fcitx-mozc 2.26.4360.102.gca82d39
fcitx-qt5 1.2.6
ffmpeg 2:4.4.1
file 5.41
filesystem 2021.12.07
findutils 4.8.0
fish 3.3.1
flac 1.3.3
flameshot 0.10.2
flex 2.6.4
fltk 1.3.7
fontconfig 2:2.13.94
freetype2 2.11.1
fribidi 1.0.11
fuse-common 3.10.5
fuse3 3.10.5
galculator 2.1.4
garcon 4.16.1
gawk 5.1.1
gc 8.2.0
gcc 11.1.0
gcc-libs 11.1.0
gd 2.3.3
gdbm 1.22
gdk-pixbuf2 2.42.6
gegl 0.4.32
gettext 0.21
ghc-libs 9.0.1
ghostscript 9.55.0
giflib 5.2.1
gimp 2.10.28
git 2.34.1
glib-networking 1:2.70.1
glib2 2.70.2
glibc 2.33
glibmm 2.66.2
glu 9.0.2
gmp 6.2.1
gnome-themes-extra 3.28+r6+g45b1d457
gnupg 2.2.32
gnutls 3.7.2
go 2:1.17.5
gobject-introspection-runtime 1.70.0
goldendict 1.5.0RC2
google-chrome 96.0.4664.110
gpgme 1.16.0
graphene 1.10.6
graphite 1:1.3.14
graphviz 2.50.0
grep 3.7
groff 1.22.4
grub 2:2.06
gsettings-desktop-schemas 41.0
gsfonts 20200910
gsm 1.0.19
gst-plugins-base 1.18.5
gst-plugins-base-libs 1.18.5
gstreamer 1.18.5
gtk-update-icon-cache 1:4.4.1
gtk2 2.24.33
gtk3 1:3.24.30+90+g20be04f7ac
gtkmm3 3.24.5
gtksourceview3 3.24.11+28+g73e57b57
gts 0.7.6.121130
guile 2.2.7
gzip 1.11
harfbuzz 3.2.0
haskell-aeson 1.5.6.0
haskell-assoc 1.0.2
haskell-attoparsec 0.14.1
haskell-base-compat 0.11.2
haskell-base-compat-batteries 0.11.2
haskell-base-orphans 0.8.5
haskell-bifunctors 5.5.11
haskell-comonad 5.0.8
haskell-data-fix 0.3.2
haskell-diff 0.4.0
haskell-distributive 0.6.2.1
haskell-dlist 1.0
haskell-erf 2.0.0.0
haskell-hashable 1.3.4.1
haskell-indexed-traversable 0.1.2
haskell-integer-logarithms 1.0.3.1
haskell-primitive 0.7.2.0
haskell-quickcheck 2.14.2
haskell-random 1.2.1
haskell-regex-base 0.94.0.2
haskell-regex-tdfa 1.3.1.1
haskell-scientific 0.3.7.0
haskell-splitmix 0.1.0.4
haskell-strict 0.4.0.1
haskell-tagged 0.8.6.1
haskell-th-abstraction 0.4.3.0
haskell-these 1.1.1.1
haskell-time-compat 1.9.6.1
haskell-transformers-compat 0.7.1
haskell-unordered-containers 0.2.14.0
haskell-uuid-types 1.0.5
haskell-vector 0.12.3.1
hicolor-icon-theme 0.17
hidapi 0.11.0
htop 3.1.2
hunspell 1.7.0
hwids 20210613
hwloc 2.5.0
hyphen 2.8.8
i3-gaps 4.20.1
i3blocks 1.5
i3lock 2.13
i3status 2.14
iana-etc 20211203
ibus 1.5.25
icu 70.1
ijs 0.35
imath 3.1.3
inetutils 2.2
iotop 0.6
iproute2 5.15.0
iptables 1:1.8.7
iputils 20210722
iso-codes 4.8.0
jack2 1.9.19
jasper 2.0.33
jbig2dec 0.19
jq 1.6
js78 78.15.0
json-c 0.15
json-glib 1.6.6
kbd 2.4.0
keepassxc 2.6.6
keyutils 1.6.3
kmod 29
krb5 1.19.2
l-smash 2.14.5
lame 3.100
lapack 3.10.0
lcms2 2.12
ldns 1.7.1
lensfun 0.3.95
less 1:590
libao 1.2.2
libarchive 3.5.2
libass 0.15.2
libassuan 2.5.5
libasyncns 0.8+3+g68cd5af
libavc1394 0.5.4
libavif 0.9.3
libbluray 1.3.0
libcanberra 0.30+2+gc0620e4
libcap 2.62
libcap-ng 0.8.2
libcloudproviders 0.3.1
libcolord 1.4.5
libcroco 0.6.13
libcups 1:2.4.0
libdaemon 0.14
libdatrie 0.2.13
libdbusmenu-glib 16.04.0
libdbusmenu-gtk3 16.04.0
libdc1394 2.2.6
libde265 1.0.8
libdrm 2.4.109
libedit 20210910_3.1
libelf 0.186
libepoxy 1.5.9
libev 4.33
libevdev 1.12.0
libexif 0.6.24
libffi 3.4.2
libfm 1.3.2
libfm-extra 1.3.2
libfm-gtk2 1.3.2
libfontenc 1.1.4
libgcrypt 1.9.4
libgexiv2 0.14.0
libglvnd 1.3.4
libgpg-error 1.43
libgphoto2 2.5.27
libgtop 2.40.0+2+g31db82ef
libgudev 237
libgusb 0.3.8
libheif 1.12.0
libibus 1.5.25
libice 1.0.10
libidn 1.38
libidn2 2.3.2
libiec61883 1.2.0
libimobiledevice 1.3.0
libinput 1.19.3
libjpeg-turbo 2.1.2
libksba 1.6.0
libldap 2.6.0
libmfx 21.3.5
libmng 2.0.3
libmnl 1.0.4
libmodplug 0.8.9.0
libmpc 1.2.1
libmypaint 1.6.1
libnetfilter_conntrack 1.0.8
libnfnetlink 1.0.1
libnftnl 1.2.1
libnghttp2 1.46.0
libnl 3.5.0
libnotify 0.7.9
libnsl 2.0.0
libogg 1.3.5
libomxil-bellagio 0.9.3
libp11-kit 0.24.0
libpaper 1.1.28
libpcap 1.10.1
libpciaccess 0.16
libpipeline 1.5.4
libplist 2.2.0
libpng 1.6.37
libproxy 0.4.17
libpsl 0.21.1
libpulse 15.0
libraw 0.20.2
libraw1394 2.1.2
librsvg 2:2.52.5
libsamplerate 0.2.2
libsasl 2.1.27
libseccomp 2.5.3
libsecret 0.20.4
libsigc++ 2.10.7
libsm 1.2.3
libsndfile 1.0.31
libsodium 1.0.18
libsoup 2.74.2
libsoup3 3.0.3
libsoxr 0.1.3
libspiro 1:20200505
libssh 0.9.6
libssh2 1.10.0
libstemmer 2.2.0
libtasn1 4.18.0
libthai 0.1.28
libtheora 1.1.1
libtiff 4.3.0
libtirpc 1.3.2
libtool 2.4.6+42+gb88cebd5
libtorrent-rasterbar 1:1.2.15
libunistring 0.9.10
libunwind 1.5.0
libusb 1.0.24
libusbmuxd 2.0.2
libva 2.13.0
libvdpau 1.4
libvisual 0.4.0
libvorbis 1.3.7
libvpx 1.11.0
libwacom 1.12
libwebp 1.2.1
libwmf 0.2.12
libwnck3 40.0
libx11 1.7.3.1
libxau 1.0.9
libxaw 1.0.14
libxcb 1.14
libxcomposite 0.4.5
libxcrypt 4.4.26
libxcursor 1.2.0
libxcvt 0.1.1
libxdamage 1.1.5
libxdmcp 1.1.3
libxext 1.3.4
libxfce4ui 4.16.1
libxfce4util 4.16.0
libxfixes 6.0.0
libxfont2 2.0.5
libxft 2.3.4
libxi 1.8
libxinerama 1.1.4
libxkbcommon 1.3.1
libxkbcommon-x11 1.3.1
libxkbfile 1.1.0
libxklavier 5.4
libxml2 2.9.12
libxmu 1.1.3
libxpm 3.5.13
libxpresent 1.0.0
libxrandr 1.5.2
libxrender 0.9.10
libxres 1.2.1
libxshmfence 1.3
libxslt 1.1.34
libxss 1.2.3
libxt 1.2.1
libxtst 1.2.3
libxv 1.0.11
libxxf86vm 1.1.4
libyuv r2266+eb6e7bb6
libzip 1.8.0
licenses 20200427
linux-api-headers 5.12.3
linux-firmware 20211027.1d00989
linux-zen 5.15.10.zen1
llvm-libs 13.0.0
lm_sensors 1:3.6.0.r41.g31d1f125
lsof 4.94.0
lua53 5.3.6
luajit 2.0.5
lxmenu-data 0.1.5
lz4 1:1.9.3
lzo 2.10
m4 1.4.19
make 4.3
man-db 2.9.4
md4c 0.4.8
meld 3.20.4
menu-cache 1.1.0
mesa 21.3.1
metis 5.1.0.p10
mkinitcpio 31
mkinitcpio-busybox 1.34.1
mpfr 4.1.0.p13
mtdev 1.1.6
mypaint-brushes1 1.3.1
nano 6.0
ncurses 6.3
ned 1.2.8
netpbm 10.73.36
nettle 3.7.3
nmap 7.92
nomacs 1:3.17.2206
npth 1.6
nspr 4.33
nss 3.73.1
numactl 2.0.14
oniguruma 6.9.7.1
opencore-amr 0.1.5
opencv 4.5.4
openexr 3.1.3
openjpeg2 2.4.0
openssh 8.8p1
openssl 1.1.1.m
opus 1.3.1
orc 0.4.32
p11-kit 0.24.0
pacman 6.0.1
pacman-contrib 1.4.0
pacman-mirrorlist 20211212
pam 1.5.2
pambase 20211210
pango 1:1.50.2
pangomm 2.46.2
patch 2.7.6
pavucontrol 1:5.0
pciutils 3.7.0
pcmanfm 1.3.2
pcre 8.45
pcre2 10.39
perl 5.34.0
perl-error 0.17029
perl-mailtools 2.21
perl-timedate 2.33
phonon-qt5 4.11.1
phonon-qt5-gstreamer 4.10.0
pinentry 1.2.0
pixman 0.40.0
pkgconf 1.8.0
polkit 0.120
polkit-gnome 0.105
poppler 21.11.0
poppler-data 0.4.11
poppler-glib 21.11.0
popt 1.18
procps-ng 3.3.17
protobuf 3.17.3
psmisc 23.4
python 3.10.1
python-appdirs 1.4.4
python-cachecontrol 1:0.12.6
python-cairo 1.20.1
python-cffi 1.15.0
python-chardet 4.0.0
python-colorama 0.4.4
python-contextlib2 0.6.0.post1
python-cryptography 36.0.0
python-distlib 0.3.3
python-distro 1.6.0
python-gobject 3.42.0
python-html5lib 1.1
python-idna 3.3
python-more-itertools 8.10.0
python-msgpack 1.0.3
python-ordered-set 4.0.2
python-packaging 20.9
python-pep517 0.12.0
python-pip 20.3.4
python-ply 3.11
python-progress 1.6
python-pycparser 2.21
python-pyopenssl 21.0.0
python-pyparsing 2.4.7
python-requests 2.26.0
python-resolvelib 0.5.5
python-retrying 1.3.3
python-setuptools 1:57.4.0
python-six 1.16.0
python-toml 0.10.2
python-tomli 1.2.2
python-urllib3 1.26.7
python-webencodings 0.5.1
qbittorrent 4.3.9
qrencode 4.1.1
qt5-base 5.15.2+kde+r263
qt5-declarative 5.15.2+kde+r41
qt5-location 5.15.2
qt5-sensors 5.15.2
qt5-svg 5.15.2+kde+r13
qt5-tools 5.15.2+kde+r17
qt5-translations 5.15.2+kde+r20
qt5-webchannel 5.15.2
qt5-webkit 5.212.0alpha4
qt5-x11extras 5.15.2
quazip 1.2
rav1e 0.4.1
readline 8.1.001
rest 0.8.1
run-parts 5.5
runc 1.0.3
sdl2 2.0.18
sed 4.8
shadow 4.8.1
shared-mime-info 2.0+115+gd74a913
shellcheck 0.7.2
simplescreenrecorder 0.4.3
slack-desktop 4.23.0
sound-theme-freedesktop 0.8
speex 1.2.0
speexdsp 1.2.0
sqlite 3.37.0
srt 1.4.4
sshfs 3.7.2
startup-notification 0.12
sudo 1.9.8.p2
suitesparse 5.10.1
svt-av1 0.8.7
sweet-theme-git v3.0.r16.g73de294
sysfsutils 2.1.1
systemd 249.7
systemd-libs 249.7
systemd-sysvcompat 249.7
tar 1.34
tbb 2021.4.0
tdb 1.4.5
texinfo 6.8
thunar 4.16.10
thunar-volman 4.16.0
tigervnc 1.12.0
traceroute 2.1.0
tracker3 3.2.1
tslib 1.22
ttf-fira-code 6.1
ttf-fira-mono 2:3.206
ttf-fira-sans 1:4.301
ttf-liberation 2.1.5
ttf-vlgothic 20200720
tumbler 4.16.0
tzdata 2021e
unrar 1:6.1.3
unzip 6.0
upower 0.99.13
usbmuxd 1.1.1
util-linux 2.37.2
util-linux-libs 2.37.2
v4l-utils 1.22.1
vi 1:070224
vid.stab 1.1
visual-studio-code-bin 1.63.2
vmaf 1.5.3
vte-common 0.66.2
vte3 0.66.2
vulkan-icd-loader 1.2.202
wayland 1.20.0
which 2.21
woff2 1.0.2
x264 3:0.163.r3060.5db6aa6
x265 3.5
xcb-proto 1.14.1
xcb-util 0.4.0
xcb-util-cursor 0.1.3
xcb-util-image 0.4.0
xcb-util-keysyms 0.4.0
xcb-util-renderutil 0.3.9
xcb-util-wm 0.4.1
xcb-util-xrm 1.3
xdg-utils 1.1.3+19+g9816ebb
xf86-input-libinput 1.2.0
xf86-video-vesa 2.5.0
xfce4-appfinder 4.16.1
xfce4-notifyd 0.6.2
xfce4-panel 4.16.3
xfce4-power-manager 4.16.0
xfce4-session 4.16.0
xfce4-settings 4.16.2
xfce4-terminal 0.8.10
xfconf 4.16.0
xfdesktop 4.16.0
xfwm4 4.16.1
xfwm4-themes 4.10.0
xkeyboard-config 2.34
xorg-bdftopcf 1.1
xorg-docs 1.7.1
xorg-font-util 1.3.2
xorg-fonts-100dpi 1.0.3
xorg-fonts-75dpi 1.0.3
xorg-fonts-alias-100dpi 1.0.4
xorg-fonts-alias-75dpi 1.0.4
xorg-fonts-encodings 1.0.5
xorg-iceauth 1.0.8
xorg-mkfontscale 1.2.1
xorg-server 21.1.2
xorg-server-common 21.1.2
xorg-server-devel 21.1.2
xorg-server-xephyr 21.1.2
xorg-server-xnest 21.1.2
xorg-server-xvfb 21.1.2
xorg-sessreg 1.1.2
xorg-setxkbmap 1.3.2
xorg-smproxy 1.0.6
xorg-util-macros 1.19.3
xorg-x11perf 1.6.1
xorg-xauth 1.1.1
xorg-xbacklight 1.2.3
xorg-xcmsdb 1.0.5
xorg-xcursorgen 1.0.7
xorg-xdpyinfo 1.3.2
xorg-xdriinfo 1.0.6
xorg-xev 1.2.4
xorg-xgamma 1.0.6
xorg-xhost 1.0.8
xorg-xinit 1.4.1
xorg-xinput 1.6.3
xorg-xkbcomp 1.4.5
xorg-xkbevd 1.1.4
xorg-xkbutils 1.0.4
xorg-xkill 1.0.5
xorg-xlsatoms 1.1.3
xorg-xlsclients 1.1.4
xorg-xmodmap 1.0.10
xorg-xpr 1.0.5
xorg-xprop 1.2.5
xorg-xrandr 1.5.1
xorg-xrdb 1.2.1
xorg-xrefresh 1.0.6
xorg-xset 1.2.4
xorg-xsetroot 1.1.2
xorg-xvinfo 1.1.4
xorg-xwayland 21.1.4
xorg-xwd 1.0.8
xorg-xwininfo 1.1.5
xorg-xwud 1.0.5
xorgproto 2021.5
xvidcore 1.3.7
xz 5.2.5
yajl 2.1.0
yay 11.0.2
yubico-c 1.13
yubico-c-client 2.15
yubikey-personalization 1.20.0
zimg 3.0.3
zita-alsa-pcmi 0.3.2
zita-resampler 1.8.0
zlib 1:1.2.11
zoom 5.8.6
zstd 1.5.0
