a52dec 0.7.4
aalib 1.4rc5
accountsservice 22.08.8
acl 2.3.1
acpi 1.7
acpid 2.0.34
adapta-maia-theme 3.94.0.149
adobe-source-code-pro-fonts 2.038ro+1.058it+1.018var
adwaita-icon-theme 43
alacritty 0.11.0
alsa-card-profiles 1:0.3.59
alsa-firmware 1.2.4
alsa-lib 1.2.8
alsa-oss 1.1.8
alsa-plugins 1:1.2.7.1
alsa-topology-conf 1.2.5.1
alsa-ucm-conf 1.2.8
alsa-utils 1.2.8
amd-ucode 20221109.60310c2
aom 3.5.0
apparmor 3.1.2
appstream-glib 0.8.2
apr 1.7.0
apr-util 1.6.1
arandr 0.1.10
archlinux-appstream-data 20221014
archlinux-keyring 20221110
argon2 20190702
artwork-i3 20190912
at-spi2-core 2.46.0
atkmm 2.28.3
attr 2.5.1
audit 3.0.8
autoconf 2.71
automake 1.16.5
autossh 1.4g
avahi 0.8+22+gfd482a7
b43-fwcutter 019
babl 0.1.96
base 3
bash 5.1.016
bashrc-manjaro 5.1.016
bat 0.22.1
bc 1.07.1
beautyline 1:20221015
binutils 2.39
bison 3.8.2
blas 3.11
blueberry 1.4.8
blueman 2.3.4
bluez 5.66
bluez-libs 5.66
bluez-tools 0.2.0
bluez-utils-compat 5.66
bmenu 0.20
boost-libs 1.80.0
botan 2.19.2
box2d 2.4.1
brave-bin 1:1.45.133
bridge-utils 1.7.1
brotli 1.0.9
btrfs-progs 6.0.1
bubblewrap 0.7.0
bzip2 1.0.8
ca-certificates 20220905
ca-certificates-mozilla 3.85
ca-certificates-utils 20220905
cairo 1.17.6
cairomm 1.14.4
cantarell-fonts 1:0.303.1
cblas 3.11
cdparanoia 10.2
chromaprint 1.5.1
cifs-utils 7.0
ckbcomp 1.208
clang 14.0.6
clipit 1:1.4.5+21+ge5fa64c
clucene 2.3.3.4
cmus 2.10.0
code-server 4.8.3
compiler-rt 14.0.6
confuse 3.3
conky 1.15.0
conky-i3 20210907
containerd 1.6.9
coreutils 9.1
cpupower 6.0
cronie 1.6.1
cryptsetup 2.5.0
cups-filters 1.28.16
cups-pk-helper 0.2.7
curl 7.86.0
cython 0.29.32
dav1d 1.0.0
db 5.3.28
dbus 1.14.4
dbus-glib 0.112
dbus-python 1.2.18
dconf 0.40.0
deluge 1:2.1.1
desktop-file-utils 0.26
device-mapper 2.03.17
dfc 3.1.1
dhclient 4.4.3.P1
dhcpcd 9.4.1
diffutils 3.8
ding-libs 0.6.2
discord 0.0.21
dmenu-manjaro 5.0
dmidecode 3.4
dmraid 1.0.0.rc16.3
dnsmasq 2.87
dnssec-anchors 20190629
docker 1:20.10.21
dosfstools 4.2
double-conversion 3.2.1
downgrade 11.2.1
ds4drv 0.5.1
duktape 2.7.0
dunst 1.9.0
e2fsprogs 1.46.5
ecryptfs-utils 111
efibootmgr 18
efivar 38
ell 0.53
enchant 2.3.3
entr 5.2
epdfview 0.1.8
exfatprogs 1.2.0
exiv2 0.27.5
exo 4.16.4
expac 10
expat 2.5.0
f2fs-tools 1.15.0
faac 1.30
faad2 2.10.1
fakeroot 1.30.1
fcitx 4.2.9.9
fcitx-configtool 0.4.10
fcitx-mozc 2.26.4360.102.gca82d39
fcitx-qt5 1.2.7
fcitx-qt6 1.2.7
fd 8.5.2
ffmpeg 2:5.1.2
ffmpeg4.4 4.4.2
ffmpegthumbnailer 2.2.2
fftw 3.3.10
file 5.43
filesystem 2022.10.18
findutils 4.9.0
fish 3.5.1
flac 1.4.2
flameshot 12.1.0
flex 2.6.4
fltk 1.3.8
fluidsynth 2.3.0
fontconfig 2:2.14.1
foomatic-db-engine 4:20220521
freeglut 3.4.0
freetype2 2.12.1
fribidi 1.0.12
fuse-common 3.12.0
fuse2 2.9.9
fuse3 3.12.0
fzf 0.34.0
galculator 2.1.4
game-devices-udev 0.18
gawk 5.2.0
gc 8.2.2
gcab 1.5
gcc 12.2.0
gcc-libs 12.2.0
gcolor2 0.4
gcr 3.41.1
gcr-4 4.0.0
gd 2.3.3
gdbm 1.23
gdk-pixbuf2 2.42.10
gegl 0.4.38
geoip 1.6.12
geoip-database 20221018
gettext 0.21.1
ghc-libs 9.0.2
ghostscript 10.0.0
giflib 5.2.1
gimp 2.10.32
git 2.38.1
glew 2.2.0
glib-networking 1:2.74.0
glib2 2.74.1
glibc 2.36
glibc-locales 2.35
glibmm 2.66.5
glslang 11.11.0
glu 9.0.2
gmp 6.2.1
gnome-bluetooth 3.34.5
gnome-keyring 1:42.1
gnupg 2.2.40
gnuplot 5.4.5
gnutls 3.7.8
gobject-introspection-runtime 1.74.0
google-chrome 107.0.5304.121
gparted 1.4.0
gpgme 1.18.0
gpm 1.20.7.r38.ge82d1a6
gptfdisk 1.0.9
graphene 1.10.8
graphicsmagick 1.3.38
graphite 1:1.3.14
graphviz 7.0.1
grep 3.8
groff 1.22.4
grub 2.06.r261.g2f4430cc0
grub-theme-manjaro-dev 18.0
gsettings-desktop-schemas 43.0
gsfonts 20200910
gsl 2.7.1
gsm 1.0.22
gspell 1.12.0
gssdp 1.6.1
gssproxy 0.9.1
gst-libav 1.20.4
gst-plugins-bad 1.20.4
gst-plugins-bad-libs 1.20.4
gst-plugins-base 1.20.4
gst-plugins-base-libs 1.20.4
gst-plugins-good 1.20.4
gst-plugins-ugly 1.20.4
gstreamer 1.20.4
gtest 1.12.1
gtk-update-icon-cache 1:4.8.2
gtk2 2.24.33
gtk3 1:3.24.34+r156+g812b3930d0
gtk4 1:4.8.2
gtkmm 1:2.24.5
gtkmm3 3.24.7
gtksourceview-pkgbuild 5
gtksourceview3 1:3.24.11+r28+g73e57b57
gtksourceview4 4.8.4
gtksourceview5 5.6.1
gts 0.7.6.121130
gufw 22.04
guile 3.0.8
gupnp 1:1.6.1
gupnp-igd 1.2.0
gvfs 1.50.2
gvfs-afc 1.50.2
gvfs-gphoto2 1.50.2
gvfs-mtp 1.50.2
gvfs-smb 1.50.2
gzip 1.12
harfbuzz 5.3.1
harfbuzz-icu 5.3.1
haskell-aeson 2.1.0.0
haskell-assoc 1.0.2
haskell-attoparsec 0.14.4
haskell-base-compat 0.12.2
haskell-base-compat-batteries 0.12.2
haskell-base-orphans 0.8.7
haskell-bifunctors 5.5.13
haskell-comonad 5.0.8
haskell-contravariant 1.5.5
haskell-data-fix 0.3.2
haskell-diff 0.4.1
haskell-distributive 0.6.2.1
haskell-dlist 1.0
haskell-erf 2.0.0.0
haskell-generically 0.1
haskell-ghc-bignum-orphans 0.1.1
haskell-hashable 1.4.1.0
haskell-indexed-traversable 0.1.2
haskell-indexed-traversable-instances 0.1.1.1
haskell-integer-logarithms 1.0.3.1
haskell-onetuple 0.3.1
haskell-primitive 0.7.4.0
haskell-quickcheck 2.14.2
haskell-random 1.2.1.1
haskell-regex-base 0.94.0.2
haskell-regex-tdfa 1.3.2
haskell-scientific 0.3.7.0
haskell-semialign 1.2.0.1
haskell-semigroupoids 5.3.7
haskell-splitmix 0.1.0.4
haskell-statevar 1.2.2
haskell-strict 0.4.0.1
haskell-tagged 0.8.6.1
haskell-text-short 0.1.5
haskell-th-abstraction 0.4.5.0
haskell-these 1.1.1.1
haskell-time-compat 1.9.6.1
haskell-transformers-compat 0.7.2
haskell-unordered-containers 0.2.19.1
haskell-uuid-types 1.0.5
haskell-vector 0.13.0.0
haskell-vector-stream 0.1.0.0
haskell-witherable 0.4.2
haveged 1.9.18
hexchat 2.16.1
hicolor-icon-theme 0.17
hidapi 0.12.0
highlight 4.4
hplip 1:3.22.10
htop 3.2.1
http-parser 2.9.4
hunspell 1.7.1
hwdata 0.364
hwinfo 22.1
hwloc 2.8.0
hyphen 2.8.8
i3-default-artwork 20190912
i3-gaps 4.21.1
i3-help 20180110
i3-scripts 20220913
i3-scrot 2.1
i3blocks 1.5
i3exit 20201126
i3lock 2.14.1
i3status-manjaro 2.13
iana-etc 20221107
ibus 1.5.27
icu 72.1
ijs 0.35
imagemagick 7.1.0.52
imath 3.1.6
imlib2 1.9.1
inetutils 2.3
iniparser 4.1
inkscape 1.2.1
inxi 3.3.23.1
iotop 0.6
iproute2 6.0.0
iptables 1:1.8.8
iputils 20211215
iso-codes 4.12.0
iw 5.19
jack2 1.9.21
jansson 2.14
jasper 3.0.6
jbig2dec 0.19
jfsutils 1.1.15
jq 1.6
json-c 0.16
json-glib 1.6.6
kauth 5.99.0
kbd 2.5.1
kcoreaddons 5.99.0
keepassxc 2.7.4
keyutils 1.6.3
kguiaddons 5.99.0
kitemmodels 5.99.0
kmod 30
krb5 1.20
kvantum 1.0.6
kvantum-manjaro 0.13.5+1+g333aa00
kwindowsystem 5.99.0
l-smash 2.14.5
lame 3.100
lapack 3.11
lcms2 2.14
ldb 2:2.6.1
ldns 1.8.3
lensfun 1:0.3.3
less 1:608
lib2geom 1.2
lib32-alsa-lib 1.2.8
lib32-alsa-plugins 1.2.7.1
lib32-brotli 1.0.9
lib32-bzip2 1.0.8
lib32-curl 7.86.0
lib32-e2fsprogs 1.46.5
lib32-expat 2.5.0
lib32-flex 2.6.4
lib32-freeglut 3.4.0
lib32-gcc-libs 12.2.0
lib32-glew 2.2.0
lib32-glibc 2.36
lib32-glu 9.0.2
lib32-icu 72.1
lib32-keyutils 1.6.3
lib32-krb5 1.20
lib32-libcap 2.66
lib32-libdrm 2.4.114
lib32-libelf 0.187
lib32-libffi 3.4.4
lib32-libgcrypt 1.10.1
lib32-libglvnd 1.5.0
lib32-libgpg-error 1.46
lib32-libice 1.0.10
lib32-libidn2 2.3.4
lib32-libldap 2.6.3
lib32-libpciaccess 0.17
lib32-libpsl 0.21.1
lib32-libsm 1.2.3
lib32-libssh2 1.10.0
lib32-libtasn1 4.19.0
lib32-libtirpc 1.3.3
lib32-libunistring 1.1
lib32-libunwind 1.6.2
lib32-libva 2.16.0
lib32-libva-vdpau-driver 0.7.4
lib32-libvdpau 1.5
lib32-libx11 1.8.2
lib32-libxau 1.0.10
lib32-libxcb 1.15
lib32-libxcrypt 4.4.30
lib32-libxcrypt-compat 4.4.30
lib32-libxdamage 1.1.5
lib32-libxdmcp 1.1.3
lib32-libxext 1.3.5
lib32-libxfixes 6.0.0
lib32-libxi 1.8
lib32-libxml2 2.10.3
lib32-libxmu 1.1.4
lib32-libxrandr 1.5.2
lib32-libxrender 0.9.11
lib32-libxshmfence 1.3.1
lib32-libxss 1.2.3
lib32-libxt 1.2.1
lib32-libxxf86vm 1.1.5
lib32-llvm-libs 14.0.6
lib32-lm_sensors 1:3.6.0.r41.g31d1f125
lib32-mesa 22.2.3
lib32-mesa-demos 8.5.0
lib32-mesa-vdpau 22.2.3
lib32-ncurses 6.3
lib32-nspr 4.35
lib32-nss 3.85
lib32-openssl 1:3.0.7
lib32-p11-kit 0.24.1
lib32-pam 1.5.2
lib32-readline 8.2.001
lib32-sqlite 3.39.4
lib32-systemd 251.8
lib32-util-linux 2.38.1
lib32-vulkan-icd-loader 1.3.226
lib32-vulkan-intel 22.2.3
lib32-wayland 1.21.0
lib32-xz 5.2.7
lib32-zlib 1.2.13
lib32-zstd 1.5.2
libabw 0.1.3
libaio 0.3.113
libappindicator-gtk3 12.10.0.r298
libarchive 3.6.1
libass 0.16.0
libassuan 2.5.5
libasyncns 1:0.8+r3+g68cd5af
libatasmart 0.19
libatomic_ops 7.6.14
libavc1394 0.5.4
libavif 0.11.1
libavtp 0.2.0
libb2 0.98.1
libblockdev 2.28
libbluray 1.3.3
libbpf 1.0.1
libbs2b 3.1.0
libbsd 0.11.7
libburn 1.5.4
libbytesize 2.7
libcaca 0.99.beta20
libcamera 0.0.1
libcanberra 1:0.30+r2+gc0620e4
libcap 2.66
libcap-ng 0.8.3
libcddb 1.3.2
libcdio 2.1.0
libcdio-paranoia 10.2+2.0.1
libcdr 0.1.7
libcerf 1:2.2
libcloudproviders 0.3.1+r8+g3a229ee
libcmis 0.5.2
libcolord 1.4.6
libconfig 1.7.3
libcups 1:2.4.2
libdaemon 0.14
libdatrie 0.2.13
libdbusmenu-glib 16.04.0
libdbusmenu-gtk3 16.04.0
libdc1394 2.2.6
libdca 0.0.7
libde265 1.0.9
libdiscid 0.6.2
libdrm 2.4.114
libdv 1.0.0
libdvbpsi 1:1.3.3
libdvdcss 1.4.3
libdvdnav 6.1.1
libdvdread 6.1.3
libe-book 0.1.3
libebml 1.4.4
libedit 20210910_3.1
libelf 0.187
libepoxy 1.5.10
libepubgen 0.1.1
libetonyek 0.1.10
libev 4.33
libevdev 1.13.0
libevent 2.1.12
libexif 0.6.24
libexttextcat 3.4.6
libfaketime 0.9.10
libfdk-aac 2.0.2
libffi 3.4.4
libfm 1.3.2
libfm-extra 1.3.2
libfm-gtk2 1.3.2
libfontenc 1.1.6
libfreeaptx 0.1.1
libfreehand 0.1.2
libgcrypt 1.10.1
libgexiv2 0.14.0
libgit2 1:1.5.0
libglvnd 1.5.0
libgme 0.6.3
libgnomekbd 1:3.28.1
libgpg-error 1.46
libgphoto2 2.5.30
libgpod 0.8.3
libgtop 2.40.0+2+g31db82ef
libgudev 237
libhandy 1.8.0
libheif 1.13.0
libibus 1.5.27
libical 3.0.16
libice 1.0.10
libid3tag 0.15.1b
libidn 1.41
libidn2 2.3.4
libiec61883 1.2.0
libimagequant 4.0.4
libimobiledevice 1.3.0
libindicator-gtk3 12.10.1
libinih 56
libinput 1.21.0
libinstpatch 1.1.6
libisl 0.25
libisofs 1.5.4
libixion 0.17.0
libjpeg-turbo 2.1.4
libkate 0.4.1
libksba 1.6.2
liblangtag 0.6.4
libldac 2.0.2.3
libldap 2.6.3
liblouis 3.23.0
liblqr 0.4.2
liblrdf 0.6.1
libltc 1.3.2
liblzf 3.6
libmad 0.15.1b
libmanette 0.2.6
libmatroska 1.7.1
libmbim 1.28.0
libmd 1.0.4
libmediainfo 22.09
libmfx 22.4.4
libmicrodns 0.2.0
libmm-glib 1.20.0
libmms 0.6.4
libmng 2.0.3
libmnl 1.0.5
libmodplug 0.8.9.0
libmpc 1.2.1
libmpcdec 1:0.1+r475
libmpeg2 0.5.1
libmspack 1:0.10.1alpha
libmspub 0.1.4
libmtp 1.1.20
libmwaw 0.3.21
libmypaint 1.6.1
libndp 1.8
libnet 1:1.1.6
libnetfilter_conntrack 1.0.9
libnewt 0.52.21
libnfnetlink 1.0.2
libnftnl 1.2.3
libnghttp2 1.50.0
libnice 0.1.19
libnl 3.7.0
libnm 1.40.2
libnma 1.10.4
libnma-common 1.10.4
libnotify 0.8.1
libnsl 2.0.0
libnumbertext 1.0.10
libodfgen 0.1.8
libogg 1.3.5
libomxil-bellagio 0.9.3
libopenmpt 0.6.6
liborcus 0.17.2
libp11-kit 0.24.1
libpagemaker 0.0.4
libpamac 11.4.1
libpaper 1.1.28
libpcap 1.10.1
libpciaccess 0.17
libpgm 5.3.128
libpipeline 1.5.6
libplacebo 4.208.0
libplist 2.2.0
libpng 1.6.38
libproxy 0.4.18
libpsl 0.21.1
libptytty 2.0
libpulse 16.1
libqmi 1.32.0
libqrtr-glib 1.2.2
libqxp 0.0.2
libraqm 0.9.0
libraw 0.20.2
libraw1394 2.1.2
libreoffice-still 7.3.7
librevenge 0.0.4
librsvg 2:2.55.1
libsamplerate 0.2.2
libsasl 2.1.28
libseccomp 2.5.4
libsecret 0.20.5
libshout 1:2.4.6
libsidplay 1.36.59
libsigc++ 2.10.8
libsm 1.2.3
libsndfile 1.1.0
libsodium 1.0.18
libsoup 2.74.3
libsoup3 3.2.2
libsoxr 0.1.3
libspiro 1:20221101
libsrtp 1:2.4.2
libssh 0.10.4
libssh2 1.10.0
libstaroffice 0.0.7
libstemmer 2.2.0
libsysprof-capture 3.46.0
libtar 1.2.20
libtasn1 4.19.0
libteam 1.31
libthai 0.1.29
libtheora 1.1.1
libtiff 4.4.0
libtirpc 1.3.3
libtommath 1.2.0
libtool 2.4.7
libtorrent-rasterbar 1:2.0.8
libtpms 0.9.5
libunistring 1.1
libunwind 1.6.2
libupnp 1.14.14
liburcu 0.13.2
libusb 1.0.26
libusbmuxd 2.0.2
libutempter 1.2.1
libutf8proc 2.8.0
libva 2.16.0
libva-mesa-driver 22.2.3
libva-vdpau-driver 0.7.4
libvdpau 1.5
libverto 0.3.2
libvisio 0.1.7
libvisual 0.4.0
libvorbis 1.3.7
libvpx 1.12.0
libwacom 2.5.0
libwebp 1.2.4
libwmf 0.2.12
libwpd 0.10.3
libwpe 1.14.0
libwpg 0.3.3
libwps 0.4.12
libx11 1.8.2
libx86emu 3.5
libxau 1.0.10
libxaw 1.0.14
libxcb 1.15
libxcomposite 0.4.5
libxcrypt 4.4.30
libxcrypt-compat 4.4.30
libxcursor 1.2.1
libxcvt 0.1.2
libxdamage 1.1.5
libxdmcp 1.1.3
libxext 1.3.5
libxfce4ui 4.16.1
libxfce4util 4.16.0
libxfixes 6.0.0
libxfont2 2.0.6
libxft 2.3.6
libxi 1.8
libxinerama 1.1.5
libxkbcommon 1.4.1
libxkbcommon-x11 1.4.1
libxkbfile 1.1.1
libxklavier 5.4
libxml2 2.10.3
libxmu 1.1.4
libxnvctrl 520.56.06
libxpm 3.5.13
libxrandr 1.5.2
libxrender 0.9.11
libxshmfence 1.3.1
libxslt 1.1.37
libxss 1.2.3
libxt 1.2.1
libxtst 1.2.4
libxv 1.0.11
libxvmc 1.0.13
libxxf86vm 1.1.5
libyaml 0.2.5
libyuv r2322+3aebf69d
libzen 0.4.39
libzip 1.9.2
libzmf 0.0.2
licenses 20220125
lightdm 1:1.32.0
lightdm-settings 1.5.9
lightdm-slick-greeter 1.5.9
lilv 0.24.20
linux-api-headers 5.18.15
linux-firmware 20221109.60310c2
linux-firmware-whence 20221109.60310c2
linux60 6.0.8
linux60-virtualbox-host-modules 7.0.2
llvm 14.0.6
llvm-libs 14.0.6
lm_sensors 1:3.6.0.r41.g31d1f125
lmdb 0.9.29
logrotate 3.20.1
lpsolve 5.5.2.11
lsb-release 2.0.r48.3cf5103
lshw B.02.19.2
lsof 4.96.4
lua 5.4.4
lua52 5.2.4
lua53 5.3.6
luajit 2.1.0.beta3.r449.gdad04f17
luit 20221028
lv2 1.18.10
lvm2 2.03.17
lxappearance 0.6.3
lxinput 0.3.5
lxmenu-data 0.1.5
lz4 1:1.9.4
lzo 2.10
m4 1.4.19
maia-console 1.2
make 4.3
man-db 2.11.0
man-pages 6.01
manjaro-alsa 20221002
manjaro-application-utility 1.3.3
manjaro-base-skel 20171029
manjaro-browser-settings 20220522
manjaro-hello 0.7.0
manjaro-hotfixes 2018.08
manjaro-i3-settings 20221117
manjaro-icons 20191015
manjaro-keyring 20221028
manjaro-ranger-settings 20221022
manjaro-release 22.0.0rc
manjaro-settings-manager 0.5.7
manjaro-settings-manager-notifier 0.5.7
manjaro-system 20220727
manjaro-zsh-config 0.22
markdown_previewer 0.r6.64ad4d7
matcha-gtk-theme 20221115
md4c 0.4.8
mdadm 4.2
mediainfo 22.09
meld 3.22.0
memtest86+ 6.00
menu-cache 1.1.0
mesa 22.2.3
mesa-demos 8.5.0
metis 5.1.0.p10
mhwd 0.6.5
mhwd-amdgpu 19.1.0
mhwd-ati 19.1.0
mhwd-db 0.6.5
mhwd-nvidia 520.56.06
mhwd-nvidia-390xx 390.154
mhwd-nvidia-470xx 470.141.03
micro 2.0.11
minizip 1:1.2.13
mjpegtools 2.2.1
mkinitcpio 32
mkinitcpio-busybox 1.35.0
mkinitcpio-openswap 0.1.0
mlocate 0.26.git.20170220
mobile-broadband-provider-info 20221107
moc 1:2.5.2
modemmanager 1.20.0
morc_menu 1.0
mousepad 0.5.10
mpfr 4.1.0.p13
mpg123 1.31.1
mpv 1:0.34.1
mtdev 1.1.6
mujs 1.3.1
mypaint-brushes1 1.3.1
ncdu 2.2.1
ncurses 6.3
ndctl 74
neon 0.32.4
nerd-fonts-noto-sans-mono 2.2.2
net-snmp 5.9.1
netctl 1.28
netpbm 10.73.37
nettle 3.8.1
network-manager-applet 1.30.0
networkmanager 1.40.2
networkmanager-openconnect 1.2.8
networkmanager-openvpn 1.10.0
networkmanager-pptp 1.2.10
networkmanager-vpnc 1.2.8
nfs-utils 2.6.2
nfsidmap 2.6.2
nftables 1:1.0.5
nitrogen 1.6.1
nm-connection-editor 1.30.0
nmap 7.93
nordvpn-bin 3.15.0
noto-fonts 20220810
npth 1.6
nspr 4.35
nss 3.85
nss-mdns 0.15.1
ntfs-3g 2022.10.3
ntp 4.2.8.p15
numactl 2.0.16
oath-toolkit 2.6.7
ocl-icd 2.3.1
oniguruma 6.9.8
openal 1.22.2
openconnect 1:9.01
opencore-amr 0.1.6
openexr 3.1.5
openjpeg2 2.5.0
openmpi 4.1.4
openpmix 4.2.2
openresolv 3.12.0
openssh 9.1p1
openssl 3.0.7
openvpn 2.5.8
optipng 0.7.7
opus 1.3.1
orc 0.4.33
os-prober 1.81
p11-kit 0.24.1
p7zip 1:17.04
pacman 6.0.2
pacman-mirrors 4.23.2
pacui 1.14.r39.ga37e948
pam 1.5.2
pamac-cli 10.4.3
pamac-gtk 10.4.3
pambase 20221020
pango 1:1.50.11
pangomm 2.46.3
papirus-icon-theme 20221101
papirus-maia-icon-theme 20200702
parted 3.5
patch 2.7.6
patchutils 0.4.2
pavucontrol 1:5.0+r61+gee77d86
pciutils 3.8.0
pcmanfm 1.3.2
pcre 8.45
pcre2 10.40
pcsclite 1.9.9
perl 5.36.0
perl-alien-build 2.72
perl-alien-libxml2 0.19
perl-capture-tiny 0.48
perl-clone 0.45
perl-dbi 1.643
perl-encode-locale 1.05
perl-error 0.17029
perl-ffi-checklib 0.31
perl-file-basedir 0.09
perl-file-chdir 0.1011
perl-file-desktopentry 0.22
perl-file-listing 6.15
perl-file-mimeinfo 0.33
perl-file-which 1.27
perl-html-parser 3.80
perl-html-tagset 3.20
perl-http-cookies 6.10
perl-http-daemon 6.14
perl-http-date 6.05
perl-http-message 6.42
perl-http-negotiate 6.01
perl-image-exiftool 12.50
perl-io-html 1.004
perl-ipc-system-simple 1.30
perl-libwww 6.67
perl-lwp-mediatypes 6.04
perl-mailtools 2.21
perl-net-http 6.22
perl-path-tiny 0.142
perl-timedate 2.33
perl-try-tiny 0.31
perl-uri 5.17
perl-www-robotrules 6.02
perl-xml-libxml 2.0208
perl-xml-namespacesupport 1.12
perl-xml-parser 2.46
perl-xml-sax 1.02
perl-xml-sax-base 1.09
perl-xml-writer 0.900
php 8.1.12
picom 9.1
pinentry 1.2.1
pipewire 1:0.3.59
pipewire-alsa 1:0.3.59
pipewire-audio 1:0.3.59
pipewire-pulse 1:0.3.59
pixman 0.42.2
pkcs11-helper 1.29.0
pkgconf 1.8.0
pkgfile 21
polkit 122
polkit-gnome 0.105
polkit-qt5 0.114.0
poppler 22.11.0
poppler-data 0.4.11
poppler-glib 22.11.0
popt 1.19
portaudio 1:19.7.0
postgresql 14.5
postgresql-libs 14.5
potrace 1.16
powertop 2.15
ppp 2.4.9
pptpclient 1.10.0
procps-ng 3.3.17
psmisc 23.5
pyside6 6.4.0.1
python 3.10.8
python-appdirs 1.4.4
python-attrs 22.1.0
python-autocommand 2.2.1
python-automat 22.10.0
python-beaker 1.11.0
python-cachecontrol 1:0.12.11
python-cairo 1.21.0
python-certifi 2022.09.24
python-cffi 1.15.1
python-chardet 5.0.0
python-click 8.1.3
python-colorama 0.4.6
python-commonmark 0.9.1
python-constantly 15.1.0
python-cryptography 38.0.3
python-cssselect 1.2.0
python-distlib 0.3.6
python-distro 1.8.0
python-docopt 0.6.2
python-docutils 1:0.19
python-evdev 1.6.0
python-future 0.18.2
python-geoip 1.3.2
python-gobject 3.42.2
python-html2text 2020.1.16
python-html5lib 1.1
python-hyperlink 21.0.0
python-idna 3.4
python-ifaddr 0.2.0
python-incremental 22.10.0
python-inflect 6.0.2
python-jaraco.context 4.1.2
python-jaraco.functools 3.5.2
python-jaraco.text 3.10.0
python-lxml 4.9.1
python-mako 1.2.3
python-manjaro-sdk 0.8
python-markupsafe 2.1.1
python-more-itertools 9.0.0
python-msgpack 1.0.4
python-npyscreen 4.10.5
python-nspektr 0.4.0
python-numpy 1.23.4
python-ordered-set 4.1.0
python-packaging 21.3
python-pep517 0.13.0
python-pillow 9.3.0
python-pip 22.3.1
python-platformdirs 2.5.3
python-ply 3.11
python-psutil 5.9.4
python-pyasn1 0.4.8
python-pyasn1-modules 0.2.8
python-pycparser 2.21
python-pydantic 1.10.2
python-pygments 2.13.0
python-pyopenssl 22.1.0
python-pyparsing 3.0.9
python-pyqt5 5.15.7
python-pyqt5-sip 12.11.0
python-pysmbc 1.0.23
python-pyudev 0.24.0
python-pyxdg 0.28
python-rencode 1.0.6
python-reportlab 3.6.12
python-requests 2.28.1
python-resolvelib 0.8.1
python-rich 12.6.0
python-service-identity 21.1.0
python-setproctitle 1.3.1
python-setuptools 1:65.1.1
python-six 1.16.0
python-systemd 235
python-tenacity 8.1.0
python-tomli 2.0.1
python-trove-classifiers 2022.10.19
python-twisted 22.10.0
python-typing_extensions 4.4.0
python-urllib3 1.26.12
python-validate-pyproject 0.10.1
python-webencodings 0.5.1
python-wheel 0.38.2
python-xapp 2.2.2
python-xlib 0.31
python-zope-interface 5.5.0
qbittorrent 4.4.5
qpdf 11.1.1
qrencode 4.1.1
qt5-base 5.15.7+kde+r173
qt5-declarative 5.15.7+kde+r21
qt5-svg 5.15.7+kde+r9
qt5-tools 5.15.7+kde+r1
qt5-translations 5.15.7
qt5-wayland 5.15.7+kde+r49
qt5-x11extras 5.15.7
qt5ct 1.5
qt6-base 6.4.0
qt6-declarative 6.4.0
qt6-svg 6.4.0
qt6-translations 6.4.0
ragel 6.10
ranger 1.9.3+428+g0b77fb8a
raptor 2.0.15
rasqal 1:0.9.33
rav1e 0.5.1
readline 8.2.001
redland 1:1.0.17
reiserfsprogs 3.6.27
rest 0.8.1+r4+ge5ee6ef
rpcbind 1.2.6
rsync 3.2.7
rtmpdump 1:2.4.r99.f1b83c1
rubberband 3.1.1
run-parts 5.5
runc 1.1.4
rxvt-unicode 9.30
rxvt-unicode-terminfo 9.30
s-nail 14.9.24
sbc 2.0
sbxkb 0.7.6
screenfetch 3.9.1
scrot 1.7
sdl12-compat 1.2.60
sdl2 2.24.2
sed 4.8
serd 0.30.16
serf 1.3.9
sg3_utils 1.47
shaderc 2022.1
shadow 4.12.3
shared-mime-info 2.0+155+gf4e7cbc
shellcheck 0.8.0
shiboken6 6.4.0.1
simplescreenrecorder 0.4.4
slack-desktop 4.29.144
slang 2.3.3
smbclient 4.17.2
snapd 2.57.5
sof-firmware 2.2.2
sord 0.16.14
sound-theme-freedesktop 0.8
soundtouch 2.3.2
spandsp 0.0.6
spectre-meltdown-checker 0.45+1+gb68ebe6
speedtest-cli 2.1.3
speex 1.2.1
speexdsp 1.2.1
spirv-tools 2022.1
splix 2.0.0
sqlite 3.39.4
squashfs-tools 4.5.1
sratom 0.6.14
srt 1.5.1
sshfs 3.7.3
startup-notification 0.12
steam 1.0.0.75
stoken 0.92
subversion 1.14.2
sudo 1.9.12.p1
suitesparse 6.0.0
svt-av1 1.3.0
svt-hevc 1.5.1
sweet-theme-git 3.0.r53.g90afc51
sysfsutils 2.1.1
syslog-ng 3.38.1
systemd 251.8
systemd-fsck-silent 239
systemd-libs 251.8
systemd-sysvcompat 251.8
taglib 1.13
talloc 2.3.4
tar 1.34
tdb 1.4.7
terminus-font 4.49.1
tevent 1:0.13.0
texinfo 7.0
thin-provisioning-tools 0.9.0
tigervnc 1.12.0
tinyxml2 9.0.0
tpm2-tss 3.2.0
traceroute 2.1.0
tracker3 3.4.1
tree 2.0.4
tslib 1.22
ttf-bitstream-vera 1.10
ttf-dejavu 2.37+18+g9b5d1b2f
ttf-droid 20121017
ttf-fira-code 6.2
ttf-fira-mono 2:3.206
ttf-fira-sans 1:4.301
ttf-font-icons 1.1
ttf-inconsolata 1:3.000
ttf-indic-otf 0.2
ttf-liberation 2.1.5
ttf-terminus-nerd 2.2.2
twolame 0.4.0
tzdata 2022f
uchardet 0.0.7
udisks2 2.9.4
ueberzug 18.1.9
ufw 0.36.1
unrar 1:6.2.2
unzip 6.0
upower 1.90.0
urxvt-perls 2.3
usbmuxd 1.1.1
usbutils 015
util-linux 2.38.1
util-linux-libs 2.38.1
v4l-utils 1.22.1
v86d 0.1.10
vi 1:070224
vibrancy-icons-teal 2.7
vid.stab 1.1
viewnior 1.8
vim 9.0.0814
vim-runtime 9.0.0814
virtualbox 7.0.2
vlc 3.0.17.4
vmaf 2.3.1
volume_key 0.3.12
volumeicon 0.5.1
vpnc 1:0.5.3.r506.r204
vulkan-headers 1:1.3.227
vulkan-icd-loader 1.3.226
vulkan-intel 22.2.3
vulkan-radeon 22.2.3
w3m 0.5.3.git20220409_1
wallpapers-juhraya 1.1
wavpack 5.5.0
wayland 1.21.0
wayland-protocols 1.28
web-installer-url-handler 2.3
webkit2gtk 2.38.2
webkit2gtk-4.1 2.38.2
webrtc-audio-processing 0.3.1
wget 1.21.3
which 2.21
wildmidi 0.4.4
wireless-regdb 2022.08.12
wireless_tools 30.pre9
wireplumber 0.4.12
wmutils 1:1.4
woff2 1.0.2
wpa_supplicant 2:2.10
wpebackend-fdo 1.14.0
wxwidgets-common 3.2.1
wxwidgets-gtk3 3.2.1
x264 3:0.164.r3095.baee400
x265 3.5
xapp 2.2.15
xarchiver 0.5.4.20
xautolock 2.2
xbitmaps 1.1.2
xcb-proto 1.15.2
xcb-util 0.4.0
xcb-util-cursor 0.1.4
xcb-util-image 0.4.1
xcb-util-keysyms 0.4.1
xcb-util-renderutil 0.3.10
xcb-util-wm 0.4.2
xcb-util-xrm 1.3
xclip 0.13
xcursor-breeze 5.22.5
xcursor-chameleon-pearl 0.5
xcursor-maia 20160417
xdg-dbus-proxy 0.1.4
xdg-user-dirs 0.18
xdg-utils 1.1.3+25+g8ae0263
xdotool 3.20211022.1
xf86-input-elographics 1.4.2
xf86-input-evdev 2.10.6
xf86-input-libinput 1.2.1
xf86-input-void 1.4.2
xf86-input-wacom 1.1.0
xf86-video-amdgpu 22.0.0
xf86-video-ati 1:19.1.0.r15.g7a6a34af
xf86-video-intel 1:2.99.917+916+g31486f40
xf86-video-nouveau 1.0.17
xfburn 0.6.2
xfce-polkit 0.3
xfce4-notifyd 0.6.4
xfce4-power-manager 4.16.0
xfconf 4.16.0
xfsprogs 5.19.0
xkeyboard-config 2.37
xmlsec 1.2.36
xorg-fonts-alias-misc 1.0.4
xorg-fonts-encodings 1.0.6
xorg-fonts-misc 1.0.3
xorg-mkfontscale 1.2.2
xorg-server 21.1.4
xorg-server-common 21.1.4
xorg-server-devel 21.1.4
xorg-setxkbmap 1.3.3
xorg-twm 1.0.12
xorg-util-macros 1.19.3
xorg-xauth 1.1.2
xorg-xdpyinfo 1.3.3
xorg-xev 1.2.5
xorg-xhost 1.0.8
xorg-xinit 1.4.1
xorg-xinput 1.6.3
xorg-xkbcomp 1.4.5
xorg-xkill 1.0.5
xorg-xmodmap 1.0.11
xorg-xprop 1.2.5
xorg-xrandr 1.5.1
xorg-xrdb 1.2.1
xorg-xset 1.2.4
xorg-xsetroot 1.1.3
xorg-xwininfo 1.1.5
xorgproto 2022.2
xsel 1.2.0.20200527
xterm 375
xvidcore 1.3.7
xxhash 0.8.1
xz 5.2.7
yajl 2.1.0
yay 11.3.0
zbar 0.23.90
zenity 3.43.0
zensu 0.3
zeromq 4.3.4
zimg 3.0.4
zlib 1:1.2.13
zoom 5.12.6
zsh 5.9
zsh-autosuggestions 0.7.0
zsh-completions 0.34.0
zsh-history-substring-search 1.0.2
zsh-syntax-highlighting 0.7.1
zsh-theme-powerlevel10k 1.16.1
zstd 1.5.2
zvbi 0.2.37
zxing-cpp 1.4.0
